[{
    "id": 1,
    "name": "Bar, Pub & Nightclub",
    "clearbit": [""]
},
{
    "id": 2,
    "name": "Café & Restaurant",
    "clearbit": [
        "Restaurants"
    ]
},
{
    "id": 3,
    "name": "Call Center & Telemarketing",
    "clearbit": [""]
},
{
    "id": 4,
    "name": "Catering & Canteen",
    "clearbit": [""]
},
{
    "id": 5,
    "name": "Entertainment, Cinemas & Fun Parks",
    "clearbit": [
        "Casinos & Gaming",
        "Movies & Entertainment"
    ]
},
{
    "id": 6,
    "name": "Events & Event Management",
    "clearbit": [""]
},
{
    "id": 7,
    "name": "Fitness & Leisure",
    "clearbit": [
        "Leisure Facilities",
        "Health & Wellness"
    ]
},
{
    "id": 8,
    "name": "Healthcare",
    "clearbit": [
        "Health Care",
        "Health Care Services"
    ]
},
{
    "id": 9,
    "name": "Hotels",
    "clearbit": [
        "Hotels, Restaurants & Leisure"
    ]
},
{
    "id": 10,
    "name": "Retail & Bakery",
    "clearbit": [
        "Household Durables",
        "Automotive",
        "Consumer Goods",
        "Consumer Electronics",
        "Sporting Goods",
        "Textiles",
        "Apparel, Accessories & Luxury Goods",
        "Home Improvement Retail",
        "Homefurnishing Retail",
        "Beverages",
        "Agricultural Products",
        "Food",
        "Food Production",
        "Packaged Foods & Meats",
        "Food Retail",
        "Cosmetics",
        "Tobacco",
        "Business Supplies",
        "Computer Hardware",
        "Building Materials",
        "Paper Products",
        "Consumer Staples",
        "Industrial Machinery",
        "Machinery",
        "Chemicals",
        "Commodity Chemicals",
        "Eyewear",
        "Pharmacy"
    ]
},
{
    "id": 11,
    "name": "Security & Services",
    "clearbit": [
        "Education Services",
        "Specialized Consumer Services",
        "Photography",
        "Education",
        "Family Services",
        "Legal Services",
        "Advertising",
        "Banking & Mortgages",
        "Accounting",
        "Finance",
        "Financial Services",
        "Payments",
        "Insurance",
        "Real Estate",
        "Commercial Printing",
        "Architecture",
        "Consulting",
        "Design",
        "Human Resource & Employment Services",
        "Research & Consulting Services",
        "Shipping & Logistics",
        "Airlines",
        "Commercial Printing",
        "Construction",
        "Transportation",
        "Cloud Services",
        "Internet",
        "Internet Software & Services",
        "Data Processing & Outsourced Services",
        "Graphic Design",
        "Communications",
        "Computer Networking",
        "Technology Hardware, Storage & Peripherals",
        "Integrated Telecommunication Services",
        "Wireless Telecommunication Services",
        "Utilities",
        "Media",
        "Public Relations",
        "Publishing",
        "Distributors",
        "Asset Management & Custody Banks",
        "Diversified Capital Markets",
        "Automation",
        "Investment Banking & Brokerage",
        "Civil Engineering",
        "Construction & Engineering",
        "Mechanical Engineering",
        "Electrical",
        "Industrials & Manufacturing",
        "Trading Companies & Distributors",
        "Biotechnology",
        "Pharmaceuticals",
        "Corporate & Business",
        "Ground Transportation", 
        "Containers & Packaging", 
        "Broadcasting",
        "Renewable Energy", 
        "Energy"
    ]
},
{
    "id": 12,
    "name": "Other",
    "clearbit": [
        "Oil & Gas",
        "Fundraising",   
        "Aerospace & Defense",          
        "Marine",          
        "Nanotechnology",
        "Gold",
        "Metals & Mining"             
    ]
}]